%YAML 1.1
%TAG !u! tag:unity3d.com,2011:
--- !u!114 &11400000
MonoBehaviour:
  m_ObjectHideFlags: 0
  m_CorrespondingSourceObject: {fileID: 0}
  m_PrefabInstance: {fileID: 0}
  m_PrefabAsset: {fileID: 0}
  m_GameObject: {fileID: 0}
  m_Enabled: 1
  m_EditorHideFlags: 0
  m_Script: {fileID: 11500000, guid: da85c32fae2d3ac4e807bd93bb927d96, type: 3}
  m_Name: Blueberry
  m_EditorClassIdentifier: 
  name: Blueberry
  icon: {fileID: 21300000, guid: c843f9588cadaed4fa14b8d63326ed2e, type: 3}
  itemObject: {fileID: 0}
