%YAML 1.1
%TAG !u! tag:unity3d.com,2011:
--- !u!114 &11400000
MonoBehaviour:
  m_ObjectHideFlags: 0
  m_CorrespondingSourceObject: {fileID: 0}
  m_PrefabInstance: {fileID: 0}
  m_PrefabAsset: {fileID: 0}
  m_GameObject: {fileID: 0}
  m_Enabled: 1
  m_EditorHideFlags: 0
  m_Script: {fileID: 11500000, guid: da85c32fae2d3ac4e807bd93bb927d96, type: 3}
  m_Name: Cheese
  m_EditorClassIdentifier: 
  name: Cheese
  icon: {fileID: 21300000, guid: 508f1a59e9c755c4ba2f7074a7d3714e, type: 3}
  itemObject: {fileID: 0}
