%YAML 1.1
%TAG !u! tag:unity3d.com,2011:
--- !u!114 &11400000
MonoBehaviour:
  m_ObjectHideFlags: 0
  m_CorrespondingSourceObject: {fileID: 0}
  m_PrefabInstance: {fileID: 0}
  m_PrefabAsset: {fileID: 0}
  m_GameObject: {fileID: 0}
  m_Enabled: 1
  m_EditorHideFlags: 0
  m_Script: {fileID: 11500000, guid: ef4c8dc52c1839347a8c01faed2e917c, type: 3}
  m_Name: Caviar toast
  m_EditorClassIdentifier: 
  name: Caviar toast
  icon: {fileID: 21300000, guid: 2725e2c2cb13fab4792748858496a00e, type: 3}
  itemObject: {fileID: 0}
  orderTime: 14
  cookingTime: 2
  Recipe:
  - {fileID: 11400000, guid: a4a363fedc7e71e4ba31148470d4e580, type: 2}
  - {fileID: 11400000, guid: 9758c5b2e4f9adc4aa4f52121ef396e0, type: 2}
