%YAML 1.1
%TAG !u! tag:unity3d.com,2011:
--- !u!114 &11400000
MonoBehaviour:
  m_ObjectHideFlags: 0
  m_CorrespondingSourceObject: {fileID: 0}
  m_PrefabInstance: {fileID: 0}
  m_PrefabAsset: {fileID: 0}
  m_GameObject: {fileID: 0}
  m_Enabled: 1
  m_EditorHideFlags: 0
  m_Script: {fileID: 11500000, guid: ef4c8dc52c1839347a8c01faed2e917c, type: 3}
  m_Name: Grilled chicken
  m_EditorClassIdentifier: 
  name: Grilled Chicken
  icon: {fileID: 21300000, guid: b1d8970ab22be094ab02aee1fb9df351, type: 3}
  itemObject: {fileID: 0}
  orderTime: 28
  cookingTime: 5
  Recipe:
  - {fileID: 11400000, guid: 69aca4ebbaa0f42449c7e98af8d3cf0d, type: 2}
  - {fileID: 11400000, guid: b2e35a0f2cb4c274cb0d638e2a9eae35, type: 2}
  - {fileID: 11400000, guid: b7ca89f9443038840a08ecbe72e40c19, type: 2}
  - {fileID: 11400000, guid: 94197ba7a0c31bf4abb08e4a9ada0794, type: 2}
