%YAML 1.1
%TAG !u! tag:unity3d.com,2011:
--- !u!114 &11400000
MonoBehaviour:
  m_ObjectHideFlags: 0
  m_CorrespondingSourceObject: {fileID: 0}
  m_PrefabInstance: {fileID: 0}
  m_PrefabAsset: {fileID: 0}
  m_GameObject: {fileID: 0}
  m_Enabled: 1
  m_EditorHideFlags: 0
  m_Script: {fileID: 11500000, guid: ef4c8dc52c1839347a8c01faed2e917c, type: 3}
  m_Name: Onigri
  m_EditorClassIdentifier: 
  name: Onigri
  icon: {fileID: 21300000, guid: 8309da625a31d1a4c8e652752395c2de, type: 3}
  itemObject: {fileID: 0}
  orderTime: 14
  cookingTime: 2
  Recipe:
  - {fileID: 11400000, guid: 6a0b48e9a737d7d4b8635e89750af671, type: 2}
  - {fileID: 11400000, guid: 223680deb0eae0a4eb56b1e88f41eaaf, type: 2}
