%YAML 1.1
%TAG !u! tag:unity3d.com,2011:
--- !u!114 &11400000
MonoBehaviour:
  m_ObjectHideFlags: 0
  m_CorrespondingSourceObject: {fileID: 0}
  m_PrefabInstance: {fileID: 0}
  m_PrefabAsset: {fileID: 0}
  m_GameObject: {fileID: 0}
  m_Enabled: 1
  m_EditorHideFlags: 0
  m_Script: {fileID: 11500000, guid: ef4c8dc52c1839347a8c01faed2e917c, type: 3}
  m_Name: Strawberry cake
  m_EditorClassIdentifier: 
  name: Strawberry cake
  icon: {fileID: 21300000, guid: 58a97aad86631764995f9c744c6875cb, type: 3}
  itemObject: {fileID: 0}
  orderTime: 35
  cookingTime: 10
  Recipe:
  - {fileID: 11400000, guid: 5ff6bf76f884202448d3430802479999, type: 2}
  - {fileID: 11400000, guid: 8672810a4494c424cbe0c304be445182, type: 2}
  - {fileID: 11400000, guid: 90e0a8f1fbd01ec4383a2392d44193d5, type: 2}
  - {fileID: 11400000, guid: b234f7924e083cb44a0f0f69492ff44c, type: 2}
  - {fileID: 11400000, guid: d38e68607b961c248bb4ddf8ef081fb6, type: 2}
